Machine Learning in R: Workshop Series
…
.pull-left[

```r
penguins %>% 
  group_by(species) %>% 
  slice_sample(n = 8)
```
]
.pull-right[
Use `group_keys()`, `group_indices()` and `group_vars()` to access grouping keys, group indices per row and grouping variables.
]

```
> # A tibble: 24 x 8
> # Groups:   species [3]
>    species island bill_length_mm bill_depth_mm flipper_length_~ body_mass_g sex  
>    <chr>   <chr>           <dbl>         <dbl>            <dbl>       <dbl> <chr>
>  1 Adelie  Biscoe           40.5          17.9              187        3200 fema~
>  2 Adelie  Dream            44.1          19.7              196        4400 male 
>  3 Adelie  Biscoe           42            19.5              200        4050 male 
>  4 Adelie  Torge~           37.7          19.8              198        3500 male 
>  5 Adelie  Biscoe           36.5          16.6              181        2850 fema~
>  6 Adelie  Dream            43.2          18.5              192        4100 male 
>  7 Adelie  Torge~           36.6          17.8              185        3700 fema~
>  8 Adelie  Torge~           42.1          19.1              195        4000 male 
>  9 Chinst~ Dream            45.2          16.6              191        3250 fema~
> 10 Chinst~ Dream            45.7          17.3              193        3600 fema~
> # ... with 14 more rows, and 1 more variable: year <dbl>
```
…
---

## 4.5 `dplyr`: A Grammar of Data Manipulation

**Stacked `group_by()`:** If `.add = T` is omitted, the second `group_by()`overrides the first.

```r
penguins %>% 
  group_by(species) %>% 
  group_by(year, .add = T)   # equivalent to group_by(species, year)
```

```
> # A tibble: 344 x 8
> # Groups:   species, year [9]
>    species island bill_length_mm bill_depth_mm flipper_length_~ body_mass_g sex  
>    <chr>   <chr>           <dbl>         <dbl>            <dbl>       <dbl> <chr>
>  1 Adelie  Torge~           39.1          18.7              181        3750 male 
>  2 Adelie  Torge~           39.5          17.4              186        3800 fema~
>  3 Adelie  Torge~           40.3          18                195        3250 fema~
>  4 Adelie  Torge~           NA            NA                 NA          NA <NA> 
>  5 Adelie  Torge~           36.7          19.3              193        3450 fema~
>  6 Adelie  Torge~           39.3          20.6              190        3650 male 
>  7 Adelie  Torge~           38.9          17.8              181        3625 fema~
>  8 Adelie  Torge~           39.2          19.6              195        4675 male 
>  9 Adelie  Torge~           34.1          18.1              193        3475 <NA> 
> 10 Adelie  Torge~           42            20.2              190        4250 <NA> 
> # ... with 334 more rows, and 1 more variable: year <dbl>
```
…
---

## 4.5 `dplyr`: A Grammar of Data Manipulation

**Changed behavior of `mutate()`:** Summary functions, e.g., `mean()` or `sd()` now operate on partitions of the data instead of on the whole data frame.

```r
penguins %>% 
  group_by(species) %>% 
  mutate(stand_bm = (body_mass_g - mean(body_mass_g, na.rm = TRUE)) / sd(body_mass_g, na.rm = TRUE))
```

```
> # A tibble: 344 x 9
> # Groups:   species [3]
>    species island bill_length_mm bill_depth_mm flipper_length_~ body_mass_g sex  
>    <chr>   <chr>           <dbl>         <dbl>            <dbl>       <dbl> <chr>
>  1 Adelie  Torge~           39.1          18.7              181        3750 male 
>  2 Adelie  Torge~           39.5          17.4              186        3800 fema~
>  3 Adelie  Torge~           40.3          18                195        3250 fema~
>  4 Adelie  Torge~           NA            NA                 NA          NA <NA> 
>  5 Adelie  Torge~           36.7          19.3              193        3450 fema~
>  6 Adelie  Torge~           39.3          20.6              190        3650 male 
>  7 Adelie  Torge~           38.9          17.8              181        3625 fema~
>  8 Adelie  Torge~           39.2          19.6              195        4675 male 
>  9 Adelie  Torge~           34.1          18.1              193        3475 <NA> 
> 10 Adelie  Torge~           42            20.2              190        4250 <NA> 
> # ... with 334 more rows, and 2 more variables: year <dbl>, stand_bm <dbl>
```
…
